﻿Projekt,Datum,Uživatel,Aktivita,Úkol,Komentář,Hodiny
CityVizor,30.03.2018,Daniel Kolář,produkce,Úkol #3935: Organizace a vývoj,Schůzka s Martinem a Janem z MF,2.50
agenda,28.03.2018,Daniel Kolář,režie,Úkol #4078: Jednání výboru OM,Jednání výboru 28.3. vč. přípravy,1.50
CityVizor,26.03.2018,Daniel Kolář,produkce,Úkol #3935: Organizace a vývoj,Tvorba podkladů pro aktualizaci webu,1.00
CityVizor,22.03.2018,Daniel Kolář,produkce,Úkol #3935: Organizace a vývoj,Draft mailu novinářce ze Svět Chytře,1.00
CityVizor,21.03.2018,Daniel Kolář,produkce,Úkol #3935: Organizace a vývoj,"Draft mailu novinářce ze Svět Chytře, mail do mapasamospravy.cz",0.50
agenda,21.03.2018,Daniel Kolář,režie,Úkol #4086: Administrativa,Aktualizace Tabulky s počty obyvatel,0.75
CityVizor,21.03.2018,Daniel Kolář,produkce,Úkol #4077: Komunikace s městy,Komunikace se zájemci o CityVizor,0.25
CityVizor,20.03.2018,Daniel Kolář,produkce,Úkol #4077: Komunikace s městy,Komunikace se zájemci o CityVizor,1.75
CityVizor,20.03.2018,Daniel Kolář,produkce,Úkol #4077: Komunikace s městy,Tvorba textu datové zprávy s nabídkou CityVizoru,1.00
agenda,18.03.2018,Daniel Kolář,režie,Úkol #4138: Newsletter prosinec-březen,Příprava Newsletteru prosinec-březen,2.50
CityVizor,12.03.2018,Daniel Kolář,produkce,Úkol #4077: Komunikace s městy,Komunikace se zájemci o CityVizor,0.50
agenda,12.03.2018,Daniel Kolář,režie,Úkol #4078: Jednání výboru OM,Výbor 12.3. plus příprava (vč. přípravy textu výběrového řízení),2.00
CityVizor,09.03.2018,Daniel Kolář,produkce,Úkol #3935: Organizace a vývoj,Výpis úkolů pro Martina domluvených na schůzce do Redmine,0.50
CityVizor,09.03.2018,Daniel Kolář,produkce,Úkol #4077: Komunikace s městy,Komunikace se zájemci o CityVizor,3.50
CityVizor,08.03.2018,Daniel Kolář,produkce,Úkol #3935: Organizace a vývoj,Koordinace vývoje s Martinem Kopeckem,3.50
CityVizor,05.03.2018,Daniel Kolář,produkce,Úkol #3935: Organizace a vývoj,Koordinace spolupráce s Internet Stream,0.50
agenda,04.03.2018,Daniel Kolář,režie,Úkol #4078: Jednání výboru OM,Účast na jednání výboru 4.3. plus priprava,1.50
CityVizor,02.03.2018,Daniel Kolář,produkce,Úkol #4077: Komunikace s městy,Komunikace - Praha 7,1.00
CityVizor,01.03.2018,Daniel Kolář,produkce,Úkol #4077: Komunikace s městy,Komunikace se zájemci o CityVizor,1.75
