﻿Projekt,Datum,Uživatel,Aktivita,Úkol,Komentář,Hodiny
CityVizor,2019-03-31,Pavla Kadlecová,produkce,Úkol #4282: Velké Březno,zájem o CV - poskytování informací,0.25
CityVizor,2019-03-31,Pavla Kadlecová,produkce,Úkol #4283: Zlín,komunikace  + evidence,0.25
CityVizor,2019-03-31,Pavla Kadlecová,produkce,Úkol #4281: Úvaly,"komunikace - nová data, komunikace  + přístup na FTP server IS, komunikace s Internestreamem a městem Úvaly, zajištění přístupu na FTP server a pokyny k ukládání dat",1.50
CityVizor,2019-03-31,Pavla Kadlecová,produkce,Úkol #4280: Uherský Brod,"řešení přetrvávajícího problému s nektuálními daty za rok 2019, komunikace s p. Kutalem ,  (po zkontrolování všeho možného nahlášení chyby na Git Hub)",0.75
CityVizor,2019-03-31,Pavla Kadlecová,produkce,Úkol #4279: Tábor,poskytnutí informace o schválení vstupu do OM + evidence,0.25
CityVizor,2019-03-31,Pavla Kadlecová,produkce,Úkol #4210: Praha 7,"načtení dat , info k datům z počátku roku - komunikace s Prahou 7  a Internet Streamem,uložení dat na FTP server Internet Streamu, chyba v importu dat, import dat - problém s neaktuálností dat v CV - chybí březen, atualizace dat v CV - problém - nelze vymazat původní soubory na FTP serveru, jitsi s LN - problém s mazáním souborů na FTP server, problém s mazáním souborů na FTP server + nová data + kom. s IS, zmizela data -  vše z roku 2019",3.00
CityVizor,2019-03-31,Pavla Kadlecová,produkce,Úkol #4243: Praha 5,"nová data + přidat rozpočtový rok, komunikace, nepřesnosti v datech v CV, Praha 5 objevila nějaké nesrovnalosti v datech - hledání příčiny",2.50
CityVizor,2019-03-31,Pavla Kadlecová,produkce,Úkol #4205: Praha 3,"komunikace, na koho data pro test validity, chyba v CV - v demo verzi?, proces nalití dat do CV, komunikace s p. Hilmarem, telefonáty s LN - vysvětlení procesů a nástrah, komunikace s p. Kutalem z Internet Streamu,, pad CV - nová instance v CV - Praha 3 + kominikace s Prahou 3 a Internet Streamem, první pilotní data - uložení na FTP server + komunikace včetně IS, problém s importem dat - shrnutí problému pro Martina K. + pomoc s odpovědí Praze  3 + metodika, komunikace s pane Hilmarem a předání zpětné vazby dál, problém s daty, aktuální stav a závěry ohledně metodiky citlivých dat + interní komunikace, prověření aktuálního stavu + telefonát s p. Hilmarem + pořádek v poště s Prahou 3",9.00
CityVizor,2019-03-31,Pavla Kadlecová,produkce,Úkol #4278: Praha 22,poskytnutí informace o schválení vstupu do OM + evidence,0.25
CityVizor,2019-03-31,Pavla Kadlecová,produkce,Úkol #4277: Praha 12,mailová komunikace + doplnění do tabulky CV,0.25
CityVizor,2019-03-31,Pavla Kadlecová,produkce,Úkol #4276: Praha 10,komunikace +  evidence,0.25
CityVizor,2019-03-31,Pavla Kadlecová,produkce,Úkol #4223: Loket,doplnění do tabulky CV + dohledání informací o aktuálním stavu,0.25
CityVizor,2019-03-31,Pavla Kadlecová,produkce,Úkol #4245: Černošice,"problém s importem dat 2019, řešení přetrvávajícího problému s neaktuálními daty za rok 2019, komunikace s p. Kutalem ",1.00
CityVizor,2019-03-31,Pavla Kadlecová,produkce,Úkol #4218: Kutná Hora,"organizace - účast na jednání zastupitelstva + odmítnutí CityVizoru, důvody nenasazení CityVizoru, komunikace s LN, organizace - účast na jednání zastupitelstva   - změna",1.25
CityVizor,2019-03-31,Pavla Kadlecová,produkce,Úkol #4188: Choceň,výzva k úhradě čl. poplatku  - příprava + odeslání + komunikace ,1.25
CityVizor,2019-03-31,Pavla Kadlecová,produkce,Úkol #4275: Hradec Králové,"zájem ú účast OM na zasedání komise pro informatiku + doplnění do tabulky CV, organizece účasti na zasedání komise IT + odpověď Hradci + evidence",0.75
CityVizor,2019-03-31,Pavla Kadlecová,produkce,Úkol #4274: Domažlice,"info k Domažlicím, seznámení se s historii + aktuálním stavem (pročtení všech mailů a poznámek + vytvoření stručného souhrnu",1.25
CityVizor,2019-03-31,Pavla Kadlecová,produkce,Úkol #4272: Čáslav,odpověď na jejich dotazy + podněty k zapracování na wiki,2.75
CityVizor,2019-03-31,Pavla Kadlecová,režie,Úkol #4197: administrativa a komunikace +hromadná (CV),"nové rozpočtové roky pro obce +  popis postupu, strategie aplikace CV, komunikace s obcemi + interní komunikace, správa tabulky CV, metodika pro řešení chyb při importu dat do CV, příprava aktualizace wiki CV, seznámení se s návodem na GitHub + registrace + pokus o zadání podnětu",9.25
agenda,2019-03-31,Pavla Kadlecová,režie,Úkol #4193: Otevřená veřejná správa,"tisková zpráva + komunikace s UPA, závěry, podklady k fakturaci poskytnutých  služeb - obědy,občerstvení, univerzita, závěry, metodika pro tento typ akce, faktury za prostory, obědy a občerstvení, ověření správnosti,zaslání podkladů, komunikace…získání všech prezentací",4.50
agenda,2019-03-31,Pavla Kadlecová,režie,Úkol #4078: jednání výboru OM,"nová struktura zápisu výboru - tabulka, příprava výboru + účast na výboru (11.3. a 25.3.), příprava zápisu výboru - nová tabulka - nový systém zápisů, pad výboru - procházení si starších zápisů a kontrola toho, co zapadlo, jitsi s LN - nová struktura zápisů - jak ideálně by to mělo vypadat,zpracování závěrů z výboru + doupravení zápisu, zpracování zápisu - novým způsobem - do tabulky, navedení nových úkolu do redmine - z výboru konaného dne 11.3., ",7.25
agenda,2019-03-31,Pavla Kadlecová,režie,Úkol #4086: administrativa a komunikace (agenda),"vyřizování a čištění pošty, maily + komunikace, problém s datovkou, Brochure - cena jazykové korektury, Brochure - příprava Dohody o provedení práce pro p. Holcovou, redmine - nastevení pevné struktury, orientace a sblížení se,  přehled obcí s rozjednaným členstvím v OM , pravidla fakturace - přijaté faktury na GIT, zpracování výkazů práce + redmine , seznámení se s novou strukturou vykazování pro rok 2019 + metodika zápisů, zpracování výkazů práce do souladu s novou metodikou+ redmine (leden, únor, březen) + ladění metodiky, ",20.50
