<?xml version="1.0" encoding="UTF-8" standalone="no"?>
<!-- Created with Inkscape (http://www.inkscape.org/) -->

<svg
   xmlns:dc="http://purl.org/dc/elements/1.1/"
   xmlns:cc="http://creativecommons.org/ns#"
   xmlns:rdf="http://www.w3.org/1999/02/22-rdf-syntax-ns#"
   xmlns:svg="http://www.w3.org/2000/svg"
   xmlns="http://www.w3.org/2000/svg"
   xmlns:xlink="http://www.w3.org/1999/xlink"
   xmlns:sodipodi="http://sodipodi.sourceforge.net/DTD/sodipodi-0.dtd"
   xmlns:inkscape="http://www.inkscape.org/namespaces/inkscape"
   width="210mm"
   height="297mm"
   viewBox="0 0 210 297"
   version="1.1"
   id="svg8"
   inkscape:version="0.92.4 (unknown)"
   sodipodi:docname="navigační šipky.svg">
  <defs
     id="defs2">
    <inkscape:path-effect
       is_visible="true"
       id="path-effect3060-9"
       effect="spiro" />
    <inkscape:path-effect
       is_visible="true"
       id="path-effect3085"
       effect="spiro" />
    <inkscape:path-effect
       is_visible="true"
       id="path-effect3087"
       effect="spiro" />
    <inkscape:path-effect
       is_visible="true"
       id="path-effect3089"
       effect="spiro" />
    <inkscape:path-effect
       is_visible="true"
       id="path-effect3091"
       effect="spiro" />
    <inkscape:path-effect
       is_visible="true"
       id="path-effect3093"
       effect="spiro" />
    <inkscape:path-effect
       is_visible="true"
       id="path-effect3095"
       effect="spiro" />
    <inkscape:path-effect
       is_visible="true"
       id="path-effect3097"
       effect="spiro" />
    <inkscape:path-effect
       is_visible="true"
       id="path-effect3099"
       effect="spiro" />
    <inkscape:path-effect
       is_visible="true"
       id="path-effect3101"
       effect="spiro" />
    <inkscape:path-effect
       is_visible="true"
       id="path-effect3103"
       effect="spiro" />
    <inkscape:path-effect
       is_visible="true"
       id="path-effect3105"
       effect="spiro" />
    <inkscape:path-effect
       is_visible="true"
       id="path-effect3107"
       effect="spiro" />
    <inkscape:path-effect
       is_visible="true"
       id="path-effect3109"
       effect="spiro" />
    <inkscape:path-effect
       is_visible="true"
       id="path-effect3111"
       effect="spiro" />
    <inkscape:path-effect
       is_visible="true"
       id="path-effect3113"
       effect="spiro" />
    <inkscape:path-effect
       is_visible="true"
       id="path-effect3115"
       effect="spiro" />
    <inkscape:path-effect
       is_visible="true"
       id="path-effect3117"
       effect="spiro" />
    <inkscape:path-effect
       is_visible="true"
       id="path-effect3119"
       effect="spiro" />
    <inkscape:path-effect
       is_visible="true"
       id="path-effect3121"
       effect="spiro" />
    <inkscape:path-effect
       is_visible="true"
       id="path-effect3123"
       effect="spiro" />
    <inkscape:path-effect
       is_visible="true"
       id="path-effect3125"
       effect="spiro" />
    <inkscape:path-effect
       is_visible="true"
       id="path-effect3060-9-4"
       effect="spiro" />
    <inkscape:path-effect
       is_visible="true"
       id="path-effect5197"
       effect="spiro" />
    <inkscape:path-effect
       is_visible="true"
       id="path-effect5199"
       effect="spiro" />
    <inkscape:path-effect
       is_visible="true"
       id="path-effect5201"
       effect="spiro" />
    <inkscape:path-effect
       is_visible="true"
       id="path-effect5203"
       effect="spiro" />
    <inkscape:path-effect
       is_visible="true"
       id="path-effect5205"
       effect="spiro" />
    <inkscape:path-effect
       is_visible="true"
       id="path-effect5207"
       effect="spiro" />
    <inkscape:path-effect
       is_visible="true"
       id="path-effect5209"
       effect="spiro" />
    <inkscape:path-effect
       is_visible="true"
       id="path-effect5211"
       effect="spiro" />
    <inkscape:path-effect
       is_visible="true"
       id="path-effect5213"
       effect="spiro" />
    <inkscape:path-effect
       is_visible="true"
       id="path-effect5215"
       effect="spiro" />
    <inkscape:path-effect
       is_visible="true"
       id="path-effect5217"
       effect="spiro" />
    <inkscape:path-effect
       is_visible="true"
       id="path-effect5219"
       effect="spiro" />
    <inkscape:path-effect
       is_visible="true"
       id="path-effect5221"
       effect="spiro" />
    <inkscape:path-effect
       is_visible="true"
       id="path-effect5223"
       effect="spiro" />
    <inkscape:path-effect
       is_visible="true"
       id="path-effect5225"
       effect="spiro" />
    <inkscape:path-effect
       is_visible="true"
       id="path-effect5227"
       effect="spiro" />
    <inkscape:path-effect
       is_visible="true"
       id="path-effect5229"
       effect="spiro" />
    <inkscape:path-effect
       is_visible="true"
       id="path-effect5231"
       effect="spiro" />
    <inkscape:path-effect
       is_visible="true"
       id="path-effect5233"
       effect="spiro" />
    <inkscape:path-effect
       is_visible="true"
       id="path-effect5235"
       effect="spiro" />
    <inkscape:path-effect
       is_visible="true"
       id="path-effect5237"
       effect="spiro" />
    <inkscape:path-effect
       is_visible="true"
       id="path-effect3060-9-7"
       effect="spiro" />
    <inkscape:path-effect
       is_visible="true"
       id="path-effect5503"
       effect="spiro" />
    <inkscape:path-effect
       is_visible="true"
       id="path-effect5505"
       effect="spiro" />
    <inkscape:path-effect
       is_visible="true"
       id="path-effect5507"
       effect="spiro" />
    <inkscape:path-effect
       is_visible="true"
       id="path-effect5509"
       effect="spiro" />
    <inkscape:path-effect
       is_visible="true"
       id="path-effect5511"
       effect="spiro" />
    <inkscape:path-effect
       is_visible="true"
       id="path-effect5513"
       effect="spiro" />
    <inkscape:path-effect
       is_visible="true"
       id="path-effect5515"
       effect="spiro" />
    <inkscape:path-effect
       is_visible="true"
       id="path-effect5517"
       effect="spiro" />
    <inkscape:path-effect
       is_visible="true"
       id="path-effect5519"
       effect="spiro" />
    <inkscape:path-effect
       is_visible="true"
       id="path-effect5521"
       effect="spiro" />
    <inkscape:path-effect
       is_visible="true"
       id="path-effect5523"
       effect="spiro" />
    <inkscape:path-effect
       is_visible="true"
       id="path-effect5525"
       effect="spiro" />
    <inkscape:path-effect
       is_visible="true"
       id="path-effect5527"
       effect="spiro" />
    <inkscape:path-effect
       is_visible="true"
       id="path-effect5529"
       effect="spiro" />
    <inkscape:path-effect
       is_visible="true"
       id="path-effect5531"
       effect="spiro" />
    <inkscape:path-effect
       is_visible="true"
       id="path-effect5533"
       effect="spiro" />
    <inkscape:path-effect
       is_visible="true"
       id="path-effect5535"
       effect="spiro" />
    <inkscape:path-effect
       is_visible="true"
       id="path-effect5537"
       effect="spiro" />
    <inkscape:path-effect
       is_visible="true"
       id="path-effect5539"
       effect="spiro" />
    <inkscape:path-effect
       is_visible="true"
       id="path-effect5541"
       effect="spiro" />
    <inkscape:path-effect
       is_visible="true"
       id="path-effect5543"
       effect="spiro" />
    <inkscape:path-effect
       is_visible="true"
       id="path-effect3060-9-4-4"
       effect="spiro" />
    <inkscape:path-effect
       is_visible="true"
       id="path-effect5546"
       effect="spiro" />
    <inkscape:path-effect
       is_visible="true"
       id="path-effect5548"
       effect="spiro" />
    <inkscape:path-effect
       is_visible="true"
       id="path-effect5550"
       effect="spiro" />
    <inkscape:path-effect
       is_visible="true"
       id="path-effect5552"
       effect="spiro" />
    <inkscape:path-effect
       is_visible="true"
       id="path-effect5554"
       effect="spiro" />
    <inkscape:path-effect
       is_visible="true"
       id="path-effect5556"
       effect="spiro" />
    <inkscape:path-effect
       is_visible="true"
       id="path-effect5558"
       effect="spiro" />
    <inkscape:path-effect
       is_visible="true"
       id="path-effect5560"
       effect="spiro" />
    <inkscape:path-effect
       is_visible="true"
       id="path-effect5562"
       effect="spiro" />
    <inkscape:path-effect
       is_visible="true"
       id="path-effect5564"
       effect="spiro" />
    <inkscape:path-effect
       is_visible="true"
       id="path-effect5566"
       effect="spiro" />
    <inkscape:path-effect
       is_visible="true"
       id="path-effect5568"
       effect="spiro" />
    <inkscape:path-effect
       is_visible="true"
       id="path-effect5570"
       effect="spiro" />
    <inkscape:path-effect
       is_visible="true"
       id="path-effect5572"
       effect="spiro" />
    <inkscape:path-effect
       is_visible="true"
       id="path-effect5574"
       effect="spiro" />
    <inkscape:path-effect
       is_visible="true"
       id="path-effect5576"
       effect="spiro" />
    <inkscape:path-effect
       is_visible="true"
       id="path-effect5578"
       effect="spiro" />
    <inkscape:path-effect
       is_visible="true"
       id="path-effect5580"
       effect="spiro" />
    <inkscape:path-effect
       is_visible="true"
       id="path-effect5582"
       effect="spiro" />
    <inkscape:path-effect
       is_visible="true"
       id="path-effect5584"
       effect="spiro" />
    <inkscape:path-effect
       is_visible="true"
       id="path-effect5586"
       effect="spiro" />
  </defs>
  <sodipodi:namedview
     id="base"
     pagecolor="#ffffff"
     bordercolor="#666666"
     borderopacity="1.0"
     inkscape:pageopacity="0.0"
     inkscape:pageshadow="2"
     inkscape:zoom="0.51"
     inkscape:cx="528.77904"
     inkscape:cy="564.47495"
     inkscape:document-units="mm"
     inkscape:current-layer="layer1"
     showgrid="false"
     inkscape:window-width="1366"
     inkscape:window-height="744"
     inkscape:window-x="0"
     inkscape:window-y="0"
     inkscape:window-maximized="1"
     inkscape:snap-grids="false"
     inkscape:snap-global="true">
    <inkscape:grid
       type="xygrid"
       id="grid4605" />
  </sodipodi:namedview>
  <metadata
     id="metadata5">
    <rdf:RDF>
      <cc:Work
         rdf:about="">
        <dc:format>image/svg+xml</dc:format>
        <dc:type
           rdf:resource="http://purl.org/dc/dcmitype/StillImage" />
        <dc:title></dc:title>
      </cc:Work>
    </rdf:RDF>
  </metadata>
  <g
     inkscape:label="Layer 1"
     inkscape:groupmode="layer"
     id="layer1">
    <g
       id="g5492"
       transform="translate(-0.17004591,13.452488)">
      <rect
         id="rect4582"
         height="32.789032"
         width="109.29677"
         y="7.1552067"
         x="6.0512152"
         style="fill:#ffffff;stroke:#000000;stroke-width:1.09296775" />
      <path
         id="path4584"
         d="M 6.0512153,45.409076 H 120.81282 V 7.1552065 L 175.46121,61.803591 120.81282,116.45198 V 78.198107 H 6.0512153 Z"
         inkscape:connector-curvature="0"
         style="fill:#ffcc00;fill-opacity:1;stroke:#000000;stroke-width:1.09296775" />
      <path
         id="path4586"
         d="m 128.54127,7.1552065 54.64839,54.6483845 -54.64839,54.648389 h 23.18535 L 206.375,61.803591 151.72662,7.1552065 Z"
         inkscape:connector-curvature="0"
         style="fill:#ffffff;stroke:#000000;stroke-width:1.09296775" />
      <rect
         id="rect4588"
         height="32.789032"
         width="109.29677"
         y="83.662949"
         x="6.0512152"
         style="fill:#ffffff;stroke:#000000;stroke-width:1.09296775" />
      <g
         inkscape:label="Layer 1"
         id="layer1-1"
         transform="matrix(3.8619524,0,0,3.8619524,-94.183738,-454.17019)">
        <g
           id="g3076-7"
           transform="matrix(0.0168371,0,0,0.0168371,36.897423,117.23783)">
          <g
             id="g3034-1">
            <g
               id="g3024-4">
              <g
                 style="fill:#000000"
                 transform="matrix(1,0,0,1.3885016,0,-56.428005)"
                 id="use3012-7"
                 inkscape:tile-x0="161.6066"
                 inkscape:tile-y0="145.2452">
                <path
                   sodipodi:nodetypes="cccc"
                   inkscape:connector-curvature="0"
                   inkscape:original-d="m 156.14471,174.50922 36.58171,-29.52124 c 20.7914,3.28704 25.19076,17.01165 36.81748,29.65366 30.53482,-7.89257 -63.26294,-0.2722 -73.39919,-0.13242 z"
                   inkscape:path-effect="#path-effect3060-9"
                   id="path3048-6"
                   d="m 156.14471,174.50922 36.58171,-29.52124 36.81748,29.65366 z"
                   style="fill:#c83737;stroke:#000000;stroke-width:0.73123121px;stroke-linecap:butt;stroke-linejoin:miter;stroke-opacity:1" />
                <path
                   sodipodi:nodetypes="ccccc"
                   inkscape:connector-curvature="0"
                   id="rect3050-9"
                   d="m 154.46374,184.9119 h 78.37934 l -8.57143,34.16547 H 161.6066 Z"
                   style="fill:#ffcc00;fill-opacity:1;stroke:#000000;stroke-width:0.27802953;stroke-miterlimit:4;stroke-opacity:1" />
                <text
                   xml:space="preserve"
                   style="font-style:normal;font-variant:normal;font-weight:normal;font-stretch:normal;line-height:0%;font-family:'Liberation Sans';-inkscape-font-specification:'Liberation Sans';letter-spacing:0px;word-spacing:0px;fill:#000000;fill-opacity:1;stroke:none"
                   x="67.14286"
                   y="86.647896"
                   id="text3095-9"
                   transform="matrix(15.714306,0,0,11.317456,-873.91501,-369.86032)"><tspan
                     sodipodi:role="line"
                     id="tspan3097-9"
                     x="67.14286"
                     y="86.647896"
                     style="font-size:20px;line-height:1.25"> </tspan></text>
              </g>
              <use
                 height="1052.3622"
                 width="744.09448"
                 transform="rotate(-30,188.9516,380.92771)"
                 id="use3020-2"
                 xlink:href="#use3012-7"
                 y="0"
                 x="0" />
              <use
                 height="1052.3622"
                 width="744.09448"
                 transform="rotate(-60,192.14134,379.33735)"
                 id="use3022-0"
                 xlink:href="#use3012-7"
                 y="0"
                 x="0" />
            </g>
            <use
               x="0"
               y="0"
               xlink:href="#g3024-4"
               id="use3032-7"
               transform="rotate(-90,192.83207,378.22778)"
               width="744.09448"
               height="1052.3622" />
          </g>
          <use
             height="1052.3622"
             width="744.09448"
             transform="rotate(180,191.92696,378.33283)"
             id="use3044-4"
             xlink:href="#g3034-1"
             y="0"
             x="0" />
        </g>
      </g>
      <g
         inkscape:label="Layer 1"
         id="layer1-1-9"
         transform="matrix(3.8619525,0,0,3.8619525,-94.183703,-377.44099)">
        <g
           id="g3076-7-1"
           transform="matrix(0.0168371,0,0,0.0168371,36.897423,117.23783)">
          <g
             id="g3034-1-0">
            <g
               id="g3024-4-7">
              <g
                 style="fill:#000000"
                 transform="matrix(1,0,0,1.3885016,0,-56.428005)"
                 id="use3012-7-5"
                 inkscape:tile-x0="161.6066"
                 inkscape:tile-y0="145.2452">
                <path
                   sodipodi:nodetypes="cccc"
                   inkscape:connector-curvature="0"
                   inkscape:original-d="m 156.14471,174.50922 36.58171,-29.52124 c 20.7914,3.28704 25.19076,17.01165 36.81748,29.65366 30.53482,-7.89257 -63.26294,-0.2722 -73.39919,-0.13242 z"
                   inkscape:path-effect="#path-effect3060-9-4"
                   id="path3048-6-8"
                   d="m 156.14471,174.50922 36.58171,-29.52124 36.81748,29.65366 z"
                   style="fill:#c83737;stroke:#000000;stroke-width:0.73123121px;stroke-linecap:butt;stroke-linejoin:miter;stroke-opacity:1" />
                <path
                   sodipodi:nodetypes="ccccc"
                   inkscape:connector-curvature="0"
                   id="rect3050-9-7"
                   d="m 154.46374,184.9119 h 78.37934 l -8.57143,34.16547 H 161.6066 Z"
                   style="fill:#ffcc00;fill-opacity:1;stroke:#000000;stroke-width:0.27802953;stroke-miterlimit:4;stroke-opacity:1" />
                <text
                   xml:space="preserve"
                   style="font-style:normal;font-variant:normal;font-weight:normal;font-stretch:normal;line-height:0%;font-family:'Liberation Sans';-inkscape-font-specification:'Liberation Sans';letter-spacing:0px;word-spacing:0px;fill:#000000;fill-opacity:1;stroke:none"
                   x="67.14286"
                   y="86.647896"
                   id="text3095-9-0"
                   transform="matrix(15.714306,0,0,11.317456,-873.91501,-369.86032)"><tspan
                     sodipodi:role="line"
                     id="tspan3097-9-4"
                     x="67.14286"
                     y="86.647896"
                     style="font-size:20px;line-height:1.25"> </tspan></text>
              </g>
              <use
                 height="1052.3622"
                 width="744.09448"
                 transform="rotate(-30,188.9516,380.92771)"
                 id="use3020-2-8"
                 xlink:href="#use3012-7-5"
                 y="0"
                 x="0" />
              <use
                 height="1052.3622"
                 width="744.09448"
                 transform="rotate(-60,192.14134,379.33735)"
                 id="use3022-0-0"
                 xlink:href="#use3012-7-5"
                 y="0"
                 x="0" />
            </g>
            <use
               x="0"
               y="0"
               xlink:href="#g3024-4-7"
               id="use3032-7-4"
               transform="rotate(-90,192.83207,378.22778)"
               width="744.09448"
               height="1052.3622" />
          </g>
          <use
             height="1052.3622"
             width="744.09448"
             transform="rotate(180,191.92696,378.33283)"
             id="use3044-4-2"
             xlink:href="#g3034-1-0"
             y="0"
             x="0" />
        </g>
      </g>
    </g>
    <g
       transform="translate(-0.16281976,161.12302)"
       id="g5492-0">
      <rect
         id="rect4582-6"
         height="32.789032"
         width="109.29677"
         y="7.1552067"
         x="6.0512152"
         style="fill:#ffffff;stroke:#000000;stroke-width:1.09296775" />
      <path
         id="path4584-4"
         d="M 6.0512153,45.409076 H 120.81282 V 7.1552065 L 175.46121,61.803591 120.81282,116.45198 V 78.198107 H 6.0512153 Z"
         inkscape:connector-curvature="0"
         style="fill:#ffcc00;fill-opacity:1;stroke:#000000;stroke-width:1.09296775" />
      <path
         id="path4586-7"
         d="m 128.54127,7.1552065 54.64839,54.6483845 -54.64839,54.648389 h 23.18535 L 206.375,61.803591 151.72662,7.1552065 Z"
         inkscape:connector-curvature="0"
         style="fill:#ffffff;stroke:#000000;stroke-width:1.09296775" />
      <rect
         id="rect4588-4"
         height="32.789032"
         width="109.29677"
         y="83.662949"
         x="6.0512152"
         style="fill:#ffffff;stroke:#000000;stroke-width:1.09296775" />
      <g
         inkscape:label="Layer 1"
         id="layer1-1-8"
         transform="matrix(3.8619524,0,0,3.8619524,-94.183738,-454.17019)">
        <g
           id="g3076-7-5"
           transform="matrix(0.0168371,0,0,0.0168371,36.897423,117.23783)">
          <g
             id="g3034-1-8">
            <g
               id="g3024-4-2">
              <g
                 style="fill:#000000"
                 transform="matrix(1,0,0,1.3885016,0,-56.428005)"
                 id="use3012-7-6"
                 inkscape:tile-x0="161.6066"
                 inkscape:tile-y0="145.2452">
                <path
                   sodipodi:nodetypes="cccc"
                   inkscape:connector-curvature="0"
                   inkscape:original-d="m 156.14471,174.50922 36.58171,-29.52124 c 20.7914,3.28704 25.19076,17.01165 36.81748,29.65366 30.53482,-7.89257 -63.26294,-0.2722 -73.39919,-0.13242 z"
                   inkscape:path-effect="#path-effect3060-9-7"
                   id="path3048-6-0"
                   d="m 156.14471,174.50922 36.58171,-29.52124 36.81748,29.65366 z"
                   style="fill:#c83737;stroke:#000000;stroke-width:0.73123121px;stroke-linecap:butt;stroke-linejoin:miter;stroke-opacity:1" />
                <path
                   sodipodi:nodetypes="ccccc"
                   inkscape:connector-curvature="0"
                   id="rect3050-9-6"
                   d="m 154.46374,184.9119 h 78.37934 l -8.57143,34.16547 H 161.6066 Z"
                   style="fill:#ffcc00;fill-opacity:1;stroke:#000000;stroke-width:0.27802953;stroke-miterlimit:4;stroke-opacity:1" />
                <text
                   xml:space="preserve"
                   style="font-style:normal;font-variant:normal;font-weight:normal;font-stretch:normal;line-height:0%;font-family:'Liberation Sans';-inkscape-font-specification:'Liberation Sans';letter-spacing:0px;word-spacing:0px;fill:#000000;fill-opacity:1;stroke:none"
                   x="67.14286"
                   y="86.647896"
                   id="text3095-9-6"
                   transform="matrix(15.714306,0,0,11.317456,-873.91501,-369.86032)"><tspan
                     sodipodi:role="line"
                     id="tspan3097-9-46"
                     x="67.14286"
                     y="86.647896"
                     style="font-size:20px;line-height:1.25"> </tspan></text>
              </g>
              <use
                 height="1052.3622"
                 width="744.09448"
                 transform="rotate(-30,188.9516,380.92771)"
                 id="use3020-2-2"
                 xlink:href="#use3012-7-6"
                 y="0"
                 x="0" />
              <use
                 height="1052.3622"
                 width="744.09448"
                 transform="rotate(-60,192.14134,379.33735)"
                 id="use3022-0-8"
                 xlink:href="#use3012-7-6"
                 y="0"
                 x="0" />
            </g>
            <use
               x="0"
               y="0"
               xlink:href="#g3024-4-2"
               id="use3032-7-9"
               transform="rotate(-90,192.83207,378.22778)"
               width="744.09448"
               height="1052.3622" />
          </g>
          <use
             height="1052.3622"
             width="744.09448"
             transform="rotate(180,191.92696,378.33283)"
             id="use3044-4-6"
             xlink:href="#g3034-1-8"
             y="0"
             x="0" />
        </g>
      </g>
      <g
         inkscape:label="Layer 1"
         id="layer1-1-9-0"
         transform="matrix(3.8619525,0,0,3.8619525,-94.183703,-377.44099)">
        <g
           id="g3076-7-1-7"
           transform="matrix(0.0168371,0,0,0.0168371,36.897423,117.23783)">
          <g
             id="g3034-1-0-0">
            <g
               id="g3024-4-7-1">
              <g
                 style="fill:#000000"
                 transform="matrix(1,0,0,1.3885016,0,-56.428005)"
                 id="use3012-7-5-0"
                 inkscape:tile-x0="161.6066"
                 inkscape:tile-y0="145.2452">
                <path
                   sodipodi:nodetypes="cccc"
                   inkscape:connector-curvature="0"
                   inkscape:original-d="m 156.14471,174.50922 36.58171,-29.52124 c 20.7914,3.28704 25.19076,17.01165 36.81748,29.65366 30.53482,-7.89257 -63.26294,-0.2722 -73.39919,-0.13242 z"
                   inkscape:path-effect="#path-effect3060-9-4-4"
                   id="path3048-6-8-1"
                   d="m 156.14471,174.50922 36.58171,-29.52124 36.81748,29.65366 z"
                   style="fill:#c83737;stroke:#000000;stroke-width:0.73123121px;stroke-linecap:butt;stroke-linejoin:miter;stroke-opacity:1" />
                <path
                   sodipodi:nodetypes="ccccc"
                   inkscape:connector-curvature="0"
                   id="rect3050-9-7-3"
                   d="m 154.46374,184.9119 h 78.37934 l -8.57143,34.16547 H 161.6066 Z"
                   style="fill:#ffcc00;fill-opacity:1;stroke:#000000;stroke-width:0.27802953;stroke-miterlimit:4;stroke-opacity:1" />
                <text
                   xml:space="preserve"
                   style="font-style:normal;font-variant:normal;font-weight:normal;font-stretch:normal;line-height:0%;font-family:'Liberation Sans';-inkscape-font-specification:'Liberation Sans';letter-spacing:0px;word-spacing:0px;fill:#000000;fill-opacity:1;stroke:none"
                   x="67.14286"
                   y="86.647896"
                   id="text3095-9-0-7"
                   transform="matrix(15.714306,0,0,11.317456,-873.91501,-369.86032)"><tspan
                     sodipodi:role="line"
                     id="tspan3097-9-4-7"
                     x="67.14286"
                     y="86.647896"
                     style="font-size:20px;line-height:1.25"> </tspan></text>
              </g>
              <use
                 height="1052.3622"
                 width="744.09448"
                 transform="rotate(-30,188.9516,380.92771)"
                 id="use3020-2-8-2"
                 xlink:href="#use3012-7-5-0"
                 y="0"
                 x="0" />
              <use
                 height="1052.3622"
                 width="744.09448"
                 transform="rotate(-60,192.14134,379.33735)"
                 id="use3022-0-0-6"
                 xlink:href="#use3012-7-5-0"
                 y="0"
                 x="0" />
            </g>
            <use
               x="0"
               y="0"
               xlink:href="#g3024-4-7-1"
               id="use3032-7-4-4"
               transform="rotate(-90,192.83207,378.22778)"
               width="744.09448"
               height="1052.3622" />
          </g>
          <use
             height="1052.3622"
             width="744.09448"
             transform="rotate(180,191.92696,378.33283)"
             id="use3044-4-2-5"
             xlink:href="#g3034-1-0-0"
             y="0"
             x="0" />
        </g>
      </g>
    </g>
    <path
       style="fill:none;fill-rule:evenodd;stroke:#000000;stroke-width:0.26499999;stroke-linecap:butt;stroke-linejoin:miter;stroke-opacity:1;stroke-miterlimit:4;stroke-dasharray:0.26499999,3.17999985;stroke-dashoffset:0"
       d="m 21.166666,148.83333 c 169.333334,0 169.333334,0 169.333334,0"
       id="path5929"
       inkscape:connector-curvature="0" />
  </g>
</svg>
