﻿Projekt,Datum,Uživatel,Aktivita,Úkol,Komentář,Hodiny
agenda,31.01.2017,Ladislav Nešněra,režie,Úkol #3952: účast na jednání výboru 31.1.2017,účast na jednání výboru,1.00
agenda,27.01.2017,Ladislav Nešněra,režie,Úkol #4014: správa infrastruktury,řešení výpadku serveru,1.00
agenda,26.01.2017,Ladislav Nešněra,režie,Úkol #4033: implementace Redmine pluginu myšlenkové mapy,pokus o Mind Map Plugin,3.25
agenda,26.01.2017,Ladislav Nešněra,režie,Úkol #4014: správa infrastruktury,Redmine – rozesílání upozornění a souhrnů,2.00
agenda,25.01.2017,Ladislav Nešněra,režie,Úkol #4014: správa infrastruktury,"příprava Redmine pro využití členskými obcemi, uživatelská podpora",2.25
sdílení zkušeností,24.01.2017,Ladislav Nešněra,produkce,Úkol #4035: metodika zpracování geodat,metodika zpracování geodat,0.75
agenda,24.01.2017,Ladislav Nešněra,režie,Úkol #4034: oslovení potencionálních zájemců o výběrové řízení,"oslovení potencionálních zájemců o výběrové řízení, metodika zpracování geodat",0.75
agenda,20.01.2017,Ladislav Nešněra,režie,Úkol #4014: správa infrastruktury,implementace konfigurace Redmine,2.50
sdílení zkušeností,20.01.2017,Ladislav Nešněra,produkce,Úkol #4036: seznámení s Redmine odbor dopravy – Brno,seznámení s Redmine Odbor dopravy – Brno,2.25
agenda,19.01.2017,Ladislav Nešněra,režie,"Úkol #4038: implementace Let's Encrypt, mojeID","implementace Let's Encrypt, mojeID",4.50
Registr smluv,19.01.2017,Ladislav Nešněra,produkce,"Úkol #4037: registr smluv – získání kontaktů, zpracování Skuhrovcových materiálů","registr smluv – získání kontaktů, zpracování Skuhrovcových materiálů",0.50
agenda,19.01.2017,Ladislav Nešněra,režie,Úkol #4014: správa infrastruktury,"implementace konfigurace Redmine, konfigurace pošty",2.50
Registr smluv,18.01.2017,Ladislav Nešněra,produkce,Úkol #4042: aktualizovat stav registru smluv,aktualizovat stav registru smluv,0.75
agenda,18.01.2017,Ladislav Nešněra,režie,"Úkol #4041: drobná administrativa, příprava Redmine","drobná administrativa, příprava Redmine",0.75
agenda,17.01.2017,Ladislav Nešněra,režie,Úkol #4014: správa infrastruktury,"převedení domény, DNS záznamy (přesun je totálně rozdrbnul)",1.50
agenda,16.01.2017,Ladislav Nešněra,režie,"Úkol #4046: správa webu, mailinglistů",převod domény + založení mojeID spolku,2.00
agenda,16.01.2017,Ladislav Nešněra,režie,Úkol #3950: účast na jednání výboru 16.1.2017,účast na jednání výboru,1.00
sdílení zkušeností,12.01.2017,Ladislav Nešněra,produkce,"Úkol #4039: zajištění a instalace nové vps, instalace Redmine","vlastní instance Redmine, nestabilní vps",6.00
agenda,10.01.2017,Ladislav Nešněra,režie,Úkol #4040: zveřejnění výběrového řízení na webu spolku,zveřejnění výběrového řízení na webu spolku,1.00
sdílení zkušeností,09.01.2017,Ladislav Nešněra,produkce,"Úkol #4039: zajištění a instalace nové vps, instalace Redmine","zajištění a instalace nové vps, instalace Redmine",2.00
