﻿Projekt,Datum,Uživatel,Aktivita,Úkol,Komentář,Hodiny
Registr smluv,31.03.2017,Ladislav Nešněra,produkce,"Úkol #4023: aktuální stav BISON, daňová evidence","aktuální stav BISON, daňová evidence",0.50
agenda,29.03.2017,Ladislav Nešněra,režie,"Úkol #4024: zpřístupnění účetnictví účetnímu, přihlášení spolku k účetním evidencím","zpřístupnění účetnictví účetnímu, přihlášení spolku k účetním evidencím",1.00
agenda,27.03.2017,Ladislav Nešněra,režie,Úkol #4025: aktuální vývoj na Praze 5,aktuální vývoj na Praze 5,0.25
sdílení zkušeností,23.03.2017,Ladislav Nešněra,produkce,Úkol #4026: využití Wikiprojektů,využití Wikiprojektů,1.75
agenda,21.03.2017,Ladislav Nešněra,režie,Úkol #4027: zpráva o činnosti,zpráva o činnosti a aktualizace webu – projekty,1.25
agenda,20.03.2017,Ladislav Nešněra,režie,Úkol #4027: zpráva o činnosti,zpráva o činnosti,2.00
agenda,19.03.2017,Ladislav Nešněra,režie,Úkol #4027: zpráva o činnosti,zpráva o činnosti,1.00
agenda,12.03.2017,Ladislav Nešněra,režie,"Úkol #4028: přístup pro účetního, e-maily OM","přístup pro účetního, e-maily OM",0.75
agenda,09.03.2017,Ladislav Nešněra,režie,"Úkol #4029: podepsání smlouvy a domluva s účetním, BISON","podepsání smlouvy a domluva s účetním, BISON",1.00
agenda,08.03.2017,Ladislav Nešněra,režie,"Úkol #4030: registrace domény cityvizor.cz, nastavení DNS","registrace domény cityvizor.cz, nastavení DNS",0.50
