﻿Projekt,Datum,Uživatel,Aktivita,Úkol,Komentář,Hodiny
agenda,06.03.2017,Marcel Kolaja,režie,Úkol #3958: podepsat smlouvu s vítězným uchazečem,"připomínkování návrhu smlouvy, komunikace s dodavatelem",0.50
agenda,06.03.2017,Marcel Kolaja,režie,Úkol #3958: podepsat smlouvu s vítězným uchazečem,"komunikace s dodavatelem, připomínkování smlouvy",0.75
