﻿Projekt,Datum,Uživatel,Aktivita,Úkol,Komentář,Hodiny
agenda,09.12.2017,Marcel Kolaja,režie,Úkol #3897: proplatit odměny za září 2016 -- květen 2018,kontrola výkazu práce Daniela Koláře za 11/2017 a předložení výboru,0.25
agenda,07.12.2017,Marcel Kolaja,režie,Úkol #4091: rozeslat opakované výzvy o zaplacení členského příspevku za rok 2017,úprava a rozeslání výzev,0.50
agenda,07.12.2017,Marcel Kolaja,režie,Úkol #3897: proplatit odměny za září 2016 -- květen 2018,vystavení výkazu Daniela Koláře za 10/2017 a proplacení odměny,0.50
agenda,01.12.2017,Marcel Kolaja,režie,Úkol #4086: Administrativa,"jednání s Danielem Kolářem ohledně zveřejňování zápisů z jednání výboru, administrace v Redmine, CityVizoru, spolupráce příští kalendářní rok, atd.",1.00
agenda,01.12.2017,Marcel Kolaja,režie,Úkol #4082: Newsletter srpen--listopad,finalizace newsletteru a odeslání do konference,0.75
